received msg---,body:{"bodies":[{"time":"1521805395526","messageId":"P00855388009044_1521805910043_5","messageModel":0,"messageType":19,"chatId":"00855388009044","detail":"{\"type\":\"offlinefile\",\"url\":\"https://talkfile.cootel.com:443/group1/M00/51/16/rBABaFq07VKALFD3AABAesmEm1Y41.docx\",\"filename\":\"Install Docker.docx\",\"length\":16506,\"hash\":\"\",\"secret\":\"\"}","sender":"00855388009044","param":{"f":"jdiconfontB","s":12,"u":0,"i":0,"b":0,"fg":-16777216,"bg":-16777216,"balloonType":0}}]},type:chat,xml:<message id="1521805395529" to="weiquan#camtalk_0094775432358@talkim.cootel.com/mobile" from="weiquan#camtalk_0094775432358@talkim.cootel.com/mobile" type="chat"><body>{&quot;bodies&quot;:[{&quot;time&quot;:&quot;1521805395526&quot;,&quot;messageId&quot;:&quot;P00855388009044_1521805910043_5&quot;,&quot;messageModel&quot;:0,&quot;messageType&quot;:19,&quot;chatId&quot;:&quot;00855388009044&quot;,&quot;detail&quot;:&quot;{\&quot;type\&quot;:\&quot;offlinefile\&quot;,\&quot;url\&quot;:\&quot;https://talkfile.cootel.com:443/group1/M00/51/16/rBABaFq07VKALFD3AABAesmEm1Y41.docx\&quot;,\&quot;filename\&quot;:\&quot;Install Docker.docx\&quot;,\&quot;length\&quot;:16506,\&quot;hash\&quot;:\&quot;\&quot;,\&quot;secret\&quot;:\&quot;\&quot;}&quot;,&quot;sender&quot;:&quot;00855388009044&quot;,&quot;param&quot;:{&quot;f&quot;:&quot;jdiconfontB&quot;,&quot;s&quot;:12,&quot;u&quot;:0,&quot;i&quot;:0,&quot;b&quot;:0,&quot;fg&quot;:-16777216,&quot;bg&quot;:-16777216,&quot;balloonType&quot;:0}}]}</body></message>
handleMessagePacket:<message id="1521805395529" to="weiquan#camtalk_0094775432358@talkim.cootel.com/mobile" from="weiquan#camtalk_0094775432358@talkim.cootel.com/mobile" type="chat"><body>{&quot;bodies&quot;:[{&quot;time&quot;:&quot;1521805395526&quot;,&quot;messageId&quot;:&quot;P00855388009044_1521805910043_5&quot;,&quot;messageModel&quot;:0,&quot;messageType&quot;:19,&quot;chatId&quot;:&quot;00855388009044&quot;,&quot;detail&quot;:&quot;{\&quot;type\&quot;:\&quot;offlinefile\&quot;,\&quot;url\&quot;:\&quot;https://talkfile.cootel.com:443/group1/M00/51/16/rBABaFq07VKALFD3AABAesmEm1Y41.docx\&quot;,\&quot;filename\&quot;:\&quot;Install Docker.docx\&quot;,\&quot;length\&quot;:16506,\&quot;hash\&quot;:\&quot;\&quot;,\&quot;secret\&quot;:\&quot;\&quot;}&quot;,&quot;sender&quot;:&quot;00855388009044&quot;,&quot;param&quot;:{&quot;f&quot;:&quot;jdiconfontB&quot;,&quot;s&quot;:12,&quot;u&quot;:0,&quot;i&quot;:0,&quot;b&quot;:0,&quot;fg&quot;:-16777216,&quot;bg&quot;:-16777216,&quot;balloonType&quot;:0}}]}</body></message>
send msg:<message id="1521805395529" from="weiquan#camtalk_0094775432358@talkim.cootel.com/mobile" to="weiquan#camtalk_0094775432358@talkim.cootel.com/mobile" type="headline"><body>xmpp:receipts</body><x xmlns="jabber:x:delay"></x></message>
